\relax 
\providecommand\hyper@newdestlabel[2]{}
\providecommand*{\memsetcounter}[2]{}
\providecommand\HyperFirstAtBeginDocument{\AtBeginDocument}
\HyperFirstAtBeginDocument{\ifx\hyper@anchor\@undefined
\global\let\oldcontentsline\contentsline
\gdef\contentsline#1#2#3#4{\oldcontentsline{#1}{#2}{#3}}
\global\let\oldnewlabel\newlabel
\gdef\newlabel#1#2{\newlabelxx{#1}#2}
\gdef\newlabelxx#1#2#3#4#5#6{\oldnewlabel{#1}{{#2}{#3}}}
\AtEndDocument{\ifx\hyper@anchor\@undefined
\let\contentsline\oldcontentsline
\let\newlabel\oldnewlabel
\fi}
\fi}
\global\let\hyper@last\relax 
\gdef\HyperFirstAtBeginDocument#1{#1}
\providecommand\HyField@AuxAddToFields[1]{}
\providecommand\HyField@AuxAddToCoFields[2]{}
\@writefile{lof}{\addvspace {10pt}}
\@writefile{lot}{\addvspace {10pt}}
\@writefile{toc}{\contentsline {chapter}{\chapternumberline {1}Introduction}{3}{chapter.1}}
\@writefile{toc}{\contentsline {subsection}{\numberline {1.0.1}Aims and scope of my project}{3}{subsection.1.0.1}}
\@writefile{toc}{\contentsline {subsection}{\numberline {1.0.2}My Tools}{3}{subsection.1.0.2}}
\@writefile{toc}{\contentsline {subsection}{\numberline {1.0.3}Organisation of this report}{3}{subsection.1.0.3}}
\@writefile{lof}{\addvspace {10pt}}
\@writefile{lot}{\addvspace {10pt}}
\@writefile{toc}{\contentsline {chapter}{\chapternumberline {2}Bayesian Filtering and Particle Methods}{5}{chapter.2}}
\@writefile{toc}{\contentsline {section}{\numberline {2.1}Particle Filtering}{6}{section.2.1}}
\@writefile{toc}{\contentsline {section}{\numberline {2.2}Resampling}{6}{section.2.2}}
\@writefile{toc}{\contentsline {subsection}{\numberline {2.2.1}Linear Implementations}{6}{subsection.2.2.1}}
\@writefile{toc}{\contentsline {subsection}{\numberline {2.2.2}Parallel Implementations - TALK ABOUT CUDA HERE?}{6}{subsection.2.2.2}}
\@writefile{lof}{\addvspace {10pt}}
\@writefile{lot}{\addvspace {10pt}}
\@writefile{toc}{\contentsline {chapter}{\chapternumberline {3}Computing on GPU's}{7}{chapter.3}}
\@writefile{toc}{\contentsline {section}{\numberline {3.1}What is a GPU?}{7}{section.3.1}}
\@writefile{toc}{\contentsline {section}{\numberline {3.2}What is CUDA?}{7}{section.3.2}}
\@writefile{toc}{\contentsline {section}{\numberline {3.3}My use of CUDA}{7}{section.3.3}}
\@writefile{toc}{\contentsline {section}{\numberline {3.4}Maximizing Computational Power}{7}{section.3.4}}
\@writefile{lof}{\addvspace {10pt}}
\@writefile{lot}{\addvspace {10pt}}
\@writefile{toc}{\contentsline {chapter}{\chapternumberline {4}Numerical examples in CUDA and CPU}{9}{chapter.4}}
\@writefile{toc}{\contentsline {section}{\numberline {4.1}First example - Linear Gaussian Model}{9}{section.4.1}}
\@writefile{toc}{\contentsline {subsection}{\numberline {4.1.1}The model specification}{9}{subsection.4.1.1}}
\@writefile{toc}{\contentsline {subsection}{\numberline {4.1.2}My implementation}{9}{subsection.4.1.2}}
\@writefile{toc}{\contentsline {subsection}{\numberline {4.1.3}Kalman Filter - CPU}{9}{subsection.4.1.3}}
\@writefile{toc}{\contentsline {subsection}{\numberline {4.1.4}Kalman Filter - GPU}{10}{subsection.4.1.4}}
\@writefile{toc}{\contentsline {subsection}{\numberline {4.1.5}Comparisons of statistics}{10}{subsection.4.1.5}}
\@writefile{toc}{\contentsline {subsubsection}{Mean}{10}{section*.1}}
\@writefile{toc}{\contentsline {subsubsection}{Covariance matrix}{10}{section*.2}}
\@writefile{toc}{\contentsline {subsubsection}{Normalizing constant}{10}{section*.3}}
\@writefile{toc}{\contentsline {section}{\numberline {4.2}Second Example - Non-linear Model}{10}{section.4.2}}
\@writefile{toc}{\contentsline {subsection}{\numberline {4.2.1}The model specification}{10}{subsection.4.2.1}}
\@writefile{toc}{\contentsline {subsection}{\numberline {4.2.2}My implementation}{11}{subsection.4.2.2}}
\@writefile{toc}{\contentsline {subsection}{\numberline {4.2.3}Comparisons of statistics}{11}{subsection.4.2.3}}
\@writefile{toc}{\contentsline {subsubsection}{Mean}{11}{section*.4}}
\@writefile{toc}{\contentsline {subsubsection}{Covariance matrix}{11}{section*.5}}
\@writefile{toc}{\contentsline {subsubsection}{Normalizing constant}{11}{section*.6}}
\@writefile{toc}{\contentsline {section}{\numberline {4.3}Third example - Lorenz96}{11}{section.4.3}}
\@writefile{toc}{\contentsline {subsection}{\numberline {4.3.1}The model specification}{11}{subsection.4.3.1}}
\@writefile{toc}{\contentsline {subsection}{\numberline {4.3.2}My implementation}{11}{subsection.4.3.2}}
\@writefile{toc}{\contentsline {subsection}{\numberline {4.3.3}Comparisons of statistics}{11}{subsection.4.3.3}}
\@writefile{toc}{\contentsline {subsubsection}{Mean}{11}{section*.7}}
\@writefile{toc}{\contentsline {subsubsection}{Covariance matrix}{11}{section*.8}}
\@writefile{toc}{\contentsline {subsubsection}{Normalizing constant}{11}{section*.9}}
\@writefile{lof}{\addvspace {10pt}}
\@writefile{lot}{\addvspace {10pt}}
\@writefile{toc}{\contentsline {chapter}{\chapternumberline {5}Conclusions and Results}{13}{chapter.5}}
\@writefile{toc}{\contentsline {section}{\numberline {5.1}Avenues for further work}{13}{section.5.1}}
\bibstyle{unsrt}
\bibdata{sample}
\@writefile{lof}{\addvspace {10pt}}
\@writefile{lot}{\addvspace {10pt}}
\@writefile{toc}{\contentsline {appendix}{\chapternumberline {A}Additional}{15}{appendix.A}}
\@writefile{toc}{\contentsline {section}{\numberline {A.1}INSERT MENDELEY FILE HERE FOR THE BIB}{15}{section.A.1}}
\memsetcounter{lastsheet}{15}
\memsetcounter{lastpage}{15}
